^D:\PROIECTE VISUAL\AF\LAB1\INSERTIONSORT\INSERTIONSORT\DEBUG\INSERTIONSORT.OBJ|D:\PROIECTE VISUAL\AF\LAB1\INSERTIONSORT\INSERTIONSORT\DEBUG\STDAFX.OBJ
D:\PROIECTE VISUAL\AF\LAB1\INSERTIONSORT\DEBUG\INSERTIONSORT.EXE
D:\PROIECTE VISUAL\AF\LAB1\INSERTIONSORT\DEBUG\INSERTIONSORT.ILK
D:\PROIECTE VISUAL\AF\LAB1\INSERTIONSORT\DEBUG\INSERTIONSORT.PDB
