^D:\PROIECTE VISUAL\AF\LAB7\LAB7\STDAFX.CPP
D:\PROIECTE VISUAL\AF\LAB7\LAB7\RELEASE\LAB7.PCH
D:\PROIECTE VISUAL\AF\LAB7\LAB7\RELEASE\VC141.PDB
D:\PROIECTE VISUAL\AF\LAB7\LAB7\RELEASE\STDAFX.OBJ
^D:\PROIECTE VISUAL\AF\LAB7\LAB7\LAB7.CPP
D:\PROIECTE VISUAL\AF\LAB7\LAB7\RELEASE\VC141.PDB
D:\PROIECTE VISUAL\AF\LAB7\LAB7\RELEASE\LAB7.OBJ
