^E:\TUDOR\PROIECTE VISUAL\AF\LAB8\LAB8\STDAFX.CPP
E:\TUDOR\PROIECTE VISUAL\AF\LAB8\LAB8\DEBUG\LAB8.PCH
E:\TUDOR\PROIECTE VISUAL\AF\LAB8\LAB8\DEBUG\VC141.PDB
E:\TUDOR\PROIECTE VISUAL\AF\LAB8\LAB8\DEBUG\VC141.IDB
E:\TUDOR\PROIECTE VISUAL\AF\LAB8\LAB8\DEBUG\STDAFX.OBJ
^E:\TUDOR\PROIECTE VISUAL\AF\LAB8\LAB8\LAB8.CPP
E:\TUDOR\PROIECTE VISUAL\AF\LAB8\LAB8\DEBUG\VC141.PDB
E:\TUDOR\PROIECTE VISUAL\AF\LAB8\LAB8\DEBUG\VC141.IDB
E:\TUDOR\PROIECTE VISUAL\AF\LAB8\LAB8\DEBUG\LAB8.OBJ
