^E:\TUDOR\PROIECTE VISUAL\AF\LAB8\LAB8\DEBUG\LAB8.OBJ|E:\TUDOR\PROIECTE VISUAL\AF\LAB8\LAB8\DEBUG\STDAFX.OBJ
E:\TUDOR\PROIECTE VISUAL\AF\LAB8\DEBUG\LAB8.EXE
E:\TUDOR\PROIECTE VISUAL\AF\LAB8\DEBUG\LAB8.ILK
E:\TUDOR\PROIECTE VISUAL\AF\LAB8\DEBUG\LAB8.PDB
