^E:\TUDOR\PROIECTE VISUAL\AF\LAB7\LAB7\STDAFX.CPP
E:\TUDOR\PROIECTE VISUAL\AF\LAB7\LAB7\DEBUG\LAB7.PCH
E:\TUDOR\PROIECTE VISUAL\AF\LAB7\LAB7\DEBUG\VC141.PDB
E:\TUDOR\PROIECTE VISUAL\AF\LAB7\LAB7\DEBUG\VC141.IDB
E:\TUDOR\PROIECTE VISUAL\AF\LAB7\LAB7\DEBUG\STDAFX.OBJ
^E:\TUDOR\PROIECTE VISUAL\AF\LAB7\LAB7\LAB7.CPP
E:\TUDOR\PROIECTE VISUAL\AF\LAB7\LAB7\DEBUG\VC141.PDB
E:\TUDOR\PROIECTE VISUAL\AF\LAB7\LAB7\DEBUG\VC141.IDB
E:\TUDOR\PROIECTE VISUAL\AF\LAB7\LAB7\DEBUG\LAB7.OBJ
