^E:\TUDOR\PROIECTE VISUAL\AF\LAB5\LAB5\STDAFX.CPP
E:\TUDOR\PROIECTE VISUAL\AF\LAB5\LAB5\DEBUG\LAB5.PCH
E:\TUDOR\PROIECTE VISUAL\AF\LAB5\LAB5\DEBUG\VC141.PDB
E:\TUDOR\PROIECTE VISUAL\AF\LAB5\LAB5\DEBUG\VC141.IDB
E:\TUDOR\PROIECTE VISUAL\AF\LAB5\LAB5\DEBUG\STDAFX.OBJ
^E:\TUDOR\PROIECTE VISUAL\AF\LAB5\LAB5\LAB5.CPP
E:\TUDOR\PROIECTE VISUAL\AF\LAB5\LAB5\DEBUG\VC141.PDB
E:\TUDOR\PROIECTE VISUAL\AF\LAB5\LAB5\DEBUG\VC141.IDB
E:\TUDOR\PROIECTE VISUAL\AF\LAB5\LAB5\DEBUG\LAB5.OBJ
