^E:\TUDOR\PROIECTE VISUAL\AF\LAB2\HEAP-TOPDOWN\HEAP-TOPDOWN\DEBUG\HEAP-TOPDOWN.OBJ|E:\TUDOR\PROIECTE VISUAL\AF\LAB2\HEAP-TOPDOWN\HEAP-TOPDOWN\DEBUG\STDAFX.OBJ
E:\TUDOR\PROIECTE VISUAL\AF\LAB2\HEAP-TOPDOWN\DEBUG\HEAP-TOPDOWN.EXE
E:\TUDOR\PROIECTE VISUAL\AF\LAB2\HEAP-TOPDOWN\DEBUG\HEAP-TOPDOWN.ILK
E:\TUDOR\PROIECTE VISUAL\AF\LAB2\HEAP-TOPDOWN\DEBUG\HEAP-TOPDOWN.PDB
