^E:\TUDOR\PROIECTE VISUAL\AF\LAB1\TOATE\TOATE\STDAFX.CPP
E:\TUDOR\PROIECTE VISUAL\AF\LAB1\TOATE\TOATE\DEBUG\TOATE.PCH
E:\TUDOR\PROIECTE VISUAL\AF\LAB1\TOATE\TOATE\DEBUG\VC141.PDB
E:\TUDOR\PROIECTE VISUAL\AF\LAB1\TOATE\TOATE\DEBUG\VC141.IDB
E:\TUDOR\PROIECTE VISUAL\AF\LAB1\TOATE\TOATE\DEBUG\STDAFX.OBJ
^E:\TUDOR\PROIECTE VISUAL\AF\LAB1\TOATE\TOATE\TOATE.CPP
E:\TUDOR\PROIECTE VISUAL\AF\LAB1\TOATE\TOATE\DEBUG\VC141.PDB
E:\TUDOR\PROIECTE VISUAL\AF\LAB1\TOATE\TOATE\DEBUG\VC141.IDB
E:\TUDOR\PROIECTE VISUAL\AF\LAB1\TOATE\TOATE\DEBUG\TOATE.OBJ
