Insertion-n,comparatii,atribuiri,comp+atrib
Masurarea 1,Masurarea 1,Masurarea 1,Masurarea 1,Masurarea 1
100,99,198,297
600,599,1198,1797
1100,1099,2198,3297
1600,1599,3198,4797
2100,2099,4198,6297
2600,2599,5198,7797
3100,3099,6198,9297
3600,3599,7198,10797
4100,4099,8198,12297
4600,4599,9198,13797
5100,5099,10198,15297
5600,5599,11198,16797
6100,6099,12198,18297
6600,6599,13198,19797
7100,7099,14198,21297
7600,7599,15198,22797
8100,8099,16198,24297
8600,8599,17198,25797
9100,9099,18198,27297
9600,9599,19198,28797
Bubble-n,comparatii,atribuiri,comp+atrib
100,99,0,99
600,599,0,599
1100,1099,0,1099
1600,1599,0,1599
2100,2099,0,2099
2600,2599,0,2599
3100,3099,0,3099
3600,3599,0,3599
4100,4099,0,4099
4600,4599,0,4599
5100,5099,0,5099
5600,5599,0,5599
6100,6099,0,6099
6600,6599,0,6599
7100,7099,0,7099
7600,7599,0,7599
8100,8099,0,8099
8600,8599,0,8599
9100,9099,0,9099
9600,9599,0,9599
Selection-n,comparatii,atribuiri,comp+atrib
100,4950,0,4950
600,179700,0,179700
1100,604450,0,604450
1600,1279200,0,1279200
2100,2203950,0,2203950
2600,3378700,0,3378700
3100,4803450,0,4803450
3600,6478200,0,6478200
4100,8402950,0,8402950
4600,10577700,0,10577700
5100,13002450,0,13002450
5600,15677200,0,15677200
6100,18601950,0,18601950
6600,21776700,0,21776700
7100,25201450,0,25201450
7600,28876200,0,28876200
8100,32800950,0,32800950
8600,36975700,0,36975700
9100,41400450,0,41400450
9600,46075200,0,46075200
Masurarea 2,Masurarea 2,Masurarea 2,Masurarea 2,Masurarea 2
100,99,198,297
600,599,1198,1797
1100,1099,2198,3297
1600,1599,3198,4797
2100,2099,4198,6297
2600,2599,5198,7797
3100,3099,6198,9297
3600,3599,7198,10797
4100,4099,8198,12297
4600,4599,9198,13797
5100,5099,10198,15297
5600,5599,11198,16797
6100,6099,12198,18297
6600,6599,13198,19797
7100,7099,14198,21297
7600,7599,15198,22797
8100,8099,16198,24297
8600,8599,17198,25797
9100,9099,18198,27297
9600,9599,19198,28797
Bubble-n,comparatii,atribuiri,comp+atrib
100,99,0,99
600,599,0,599
1100,1099,0,1099
1600,1599,0,1599
2100,2099,0,2099
2600,2599,0,2599
3100,3099,0,3099
3600,3599,0,3599
4100,4099,0,4099
4600,4599,0,4599
5100,5099,0,5099
5600,5599,0,5599
6100,6099,0,6099
6600,6599,0,6599
7100,7099,0,7099
7600,7599,0,7599
8100,8099,0,8099
8600,8599,0,8599
9100,9099,0,9099
9600,9599,0,9599
Selection-n,comparatii,atribuiri,comp+atrib
100,4950,0,4950
600,179700,0,179700
1100,604450,0,604450
1600,1279200,0,1279200
2100,2203950,0,2203950
2600,3378700,0,3378700
3100,4803450,0,4803450
3600,6478200,0,6478200
4100,8402950,0,8402950
4600,10577700,0,10577700
5100,13002450,0,13002450
5600,15677200,0,15677200
6100,18601950,0,18601950
6600,21776700,0,21776700
7100,25201450,0,25201450
7600,28876200,0,28876200
8100,32800950,0,32800950
8600,36975700,0,36975700
9100,41400450,0,41400450
9600,46075200,0,46075200
Masurarea 3,Masurarea 3,Masurarea 3,Masurarea 3,Masurarea 3
100,99,198,297
600,599,1198,1797
1100,1099,2198,3297
1600,1599,3198,4797
2100,2099,4198,6297
2600,2599,5198,7797
3100,3099,6198,9297
3600,3599,7198,10797
4100,4099,8198,12297
4600,4599,9198,13797
5100,5099,10198,15297
5600,5599,11198,16797
6100,6099,12198,18297
6600,6599,13198,19797
7100,7099,14198,21297
7600,7599,15198,22797
8100,8099,16198,24297
8600,8599,17198,25797
9100,9099,18198,27297
9600,9599,19198,28797
Bubble-n,comparatii,atribuiri,comp+atrib
100,99,0,99
600,599,0,599
1100,1099,0,1099
1600,1599,0,1599
2100,2099,0,2099
2600,2599,0,2599
3100,3099,0,3099
3600,3599,0,3599
4100,4099,0,4099
4600,4599,0,4599
5100,5099,0,5099
5600,5599,0,5599
6100,6099,0,6099
6600,6599,0,6599
7100,7099,0,7099
7600,7599,0,7599
8100,8099,0,8099
8600,8599,0,8599
9100,9099,0,9099
9600,9599,0,9599
Selection-n,comparatii,atribuiri,comp+atrib
100,4950,0,4950
600,179700,0,179700
1100,604450,0,604450
1600,1279200,0,1279200
2100,2203950,0,2203950
2600,3378700,0,3378700
3100,4803450,0,4803450
3600,6478200,0,6478200
4100,8402950,0,8402950
4600,10577700,0,10577700
5100,13002450,0,13002450
5600,15677200,0,15677200
6100,18601950,0,18601950
6600,21776700,0,21776700
7100,25201450,0,25201450
7600,28876200,0,28876200
8100,32800950,0,32800950
8600,36975700,0,36975700
9100,41400450,0,41400450
9600,46075200,0,46075200
Masurarea 4,Masurarea 4,Masurarea 4,Masurarea 4,Masurarea 4
100,99,198,297
600,599,1198,1797
1100,1099,2198,3297
1600,1599,3198,4797
2100,2099,4198,6297
2600,2599,5198,7797
3100,3099,6198,9297
3600,3599,7198,10797
4100,4099,8198,12297
4600,4599,9198,13797
5100,5099,10198,15297
5600,5599,11198,16797
6100,6099,12198,18297
6600,6599,13198,19797
7100,7099,14198,21297
7600,7599,15198,22797
8100,8099,16198,24297
8600,8599,17198,25797
9100,9099,18198,27297
9600,9599,19198,28797
Bubble-n,comparatii,atribuiri,comp+atrib
100,99,0,99
600,599,0,599
1100,1099,0,1099
1600,1599,0,1599
2100,2099,0,2099
2600,2599,0,2599
3100,3099,0,3099
3600,3599,0,3599
4100,4099,0,4099
4600,4599,0,4599
5100,5099,0,5099
5600,5599,0,5599
6100,6099,0,6099
6600,6599,0,6599
7100,7099,0,7099
7600,7599,0,7599
8100,8099,0,8099
8600,8599,0,8599
9100,9099,0,9099
9600,9599,0,9599
Selection-n,comparatii,atribuiri,comp+atrib
100,4950,0,4950
600,179700,0,179700
1100,604450,0,604450
1600,1279200,0,1279200
2100,2203950,0,2203950
2600,3378700,0,3378700
3100,4803450,0,4803450
3600,6478200,0,6478200
4100,8402950,0,8402950
4600,10577700,0,10577700
5100,13002450,0,13002450
5600,15677200,0,15677200
6100,18601950,0,18601950
6600,21776700,0,21776700
7100,25201450,0,25201450
7600,28876200,0,28876200
8100,32800950,0,32800950
8600,36975700,0,36975700
9100,41400450,0,41400450
9600,46075200,0,46075200
Masurarea 5,Masurarea 5,Masurarea 5,Masurarea 5,Masurarea 5
100,99,198,297
600,599,1198,1797
1100,1099,2198,3297
1600,1599,3198,4797
2100,2099,4198,6297
2600,2599,5198,7797
3100,3099,6198,9297
3600,3599,7198,10797
4100,4099,8198,12297
4600,4599,9198,13797
5100,5099,10198,15297
5600,5599,11198,16797
6100,6099,12198,18297
6600,6599,13198,19797
7100,7099,14198,21297
7600,7599,15198,22797
8100,8099,16198,24297
8600,8599,17198,25797
9100,9099,18198,27297
9600,9599,19198,28797
Bubble-n,comparatii,atribuiri,comp+atrib
100,99,0,99
600,599,0,599
1100,1099,0,1099
1600,1599,0,1599
2100,2099,0,2099
2600,2599,0,2599
3100,3099,0,3099
3600,3599,0,3599
4100,4099,0,4099
4600,4599,0,4599
5100,5099,0,5099
5600,5599,0,5599
6100,6099,0,6099
6600,6599,0,6599
7100,7099,0,7099
7600,7599,0,7599
8100,8099,0,8099
8600,8599,0,8599
9100,9099,0,9099
9600,9599,0,9599
Selection-n,comparatii,atribuiri,comp+atrib
100,4950,0,4950
600,179700,0,179700
1100,604450,0,604450
1600,1279200,0,1279200
2100,2203950,0,2203950
2600,3378700,0,3378700
3100,4803450,0,4803450
3600,6478200,0,6478200
4100,8402950,0,8402950
4600,10577700,0,10577700
5100,13002450,0,13002450
5600,15677200,0,15677200
6100,18601950,0,18601950
6600,21776700,0,21776700
7100,25201450,0,25201450
7600,28876200,0,28876200
8100,32800950,0,32800950
8600,36975700,0,36975700
9100,41400450,0,41400450
9600,46075200,0,46075200
