^E:\TUDOR\PROIECTE VISUAL\AF\LAB3\QUICK-SORT\QUICK-SORT\STDAFX.CPP
E:\TUDOR\PROIECTE VISUAL\AF\LAB3\QUICK-SORT\QUICK-SORT\DEBUG\QUICK-SORT.PCH
E:\TUDOR\PROIECTE VISUAL\AF\LAB3\QUICK-SORT\QUICK-SORT\DEBUG\VC141.PDB
E:\TUDOR\PROIECTE VISUAL\AF\LAB3\QUICK-SORT\QUICK-SORT\DEBUG\VC141.IDB
E:\TUDOR\PROIECTE VISUAL\AF\LAB3\QUICK-SORT\QUICK-SORT\DEBUG\STDAFX.OBJ
^E:\TUDOR\PROIECTE VISUAL\AF\LAB3\QUICK-SORT\QUICK-SORT\QUICK-SORT.CPP
E:\TUDOR\PROIECTE VISUAL\AF\LAB3\QUICK-SORT\QUICK-SORT\DEBUG\VC141.PDB
E:\TUDOR\PROIECTE VISUAL\AF\LAB3\QUICK-SORT\QUICK-SORT\DEBUG\VC141.IDB
E:\TUDOR\PROIECTE VISUAL\AF\LAB3\QUICK-SORT\QUICK-SORT\DEBUG\QUICK-SORT.OBJ
