^E:\TUDOR\PROIECTE VISUAL\AF\LAB3\QUICK-SORT\QUICK-SORT\DEBUG\QUICK-SORT.OBJ|E:\TUDOR\PROIECTE VISUAL\AF\LAB3\QUICK-SORT\QUICK-SORT\DEBUG\STDAFX.OBJ
E:\TUDOR\PROIECTE VISUAL\AF\LAB3\QUICK-SORT\DEBUG\QUICK-SORT.EXE
E:\TUDOR\PROIECTE VISUAL\AF\LAB3\QUICK-SORT\DEBUG\QUICK-SORT.ILK
E:\TUDOR\PROIECTE VISUAL\AF\LAB3\QUICK-SORT\DEBUG\QUICK-SORT.PDB
